…
The two charts above show the total number of players that did not attend a certain tournament, and the second chart breaks it down into women and men. In all three graphics, the Australian Open is the most missed tournament. This is also interesting to look at because going back to the first question, the Australian Open was the tournament that the least number of people won their first grand slam title at. This makes sense if a large number of people are choosing to not play in the tournament. It is also interesting to note that the total number of absent players for the women is higher than for the men.

Question 5

Of the players with greater than 4 overall wins, which player wins the most for each tournament?

dat1 %>%
  left_join(dat2, c("player" = "name")) %>%
  filter(outcome == "Won", rolling_win_count >= 4) %>%
  select(player, year.y, tournament, gender.x, rolling_win_count)

## # A tibble: 2,888 x 5
##    player         year.y tournament      gender.x rolling_win_count
##    <chr>           <dbl> <chr>           <chr>                <dbl>
##  1 Virginia Wade    1977 US Open         Female                   4
##  2 Margaret Court   1970 Australian Open Female                   4
##  3 Margaret Court   1970 Australian Open Female                   5
##  4 Margaret Court   1970 Australian Open Female                   6
##  5 Margaret Court   1970 Australian Open Female                   7
##  6 Margaret Court   1971 Australian Open Female                   8
##  7 Margaret Court   1973 Australian Open Female                   9
##  8 Margaret Court   1973 Australian Open Female                  10
##  9 Margaret Court   1973 Australian Open Female                  11
## 10 Margaret Court   1970 French Open     Female                   4
## # … with 2,878 more rows
